<?xml version="1.0" encoding="UTF-8"?>
<!DOCTYPE svg PUBLIC "-//W3C//DTD SVG 1.1//EN" "http://www.w3.org/Graphics/SVG/1.1/DTD/svg11.dtd">
<!-- Creator: CorelDRAW X7 -->
<svg xmlns="http://www.w3.org/2000/svg" xml:space="preserve" width="20.6062mm" height="25.3804mm" version="1.1" style="shape-rendering:geometricPrecision; text-rendering:geometricPrecision; image-rendering:optimizeQuality; fill-rule:evenodd; clip-rule:evenodd"
viewBox="0 0 2616 3222"
 xmlns:xlink="http://www.w3.org/1999/xlink">
 <defs>
  <style type="text/css">
   <![CDATA[
    .str1 {stroke:black;stroke-width:201.51}
    .str0 {stroke:black;stroke-width:268.688}
    .str2 {stroke:black;stroke-width:25.3887}
    .str3 {stroke:black;stroke-width:25.3887}
    .fil0 {fill:none}
    .fil1 {fill:black}
   ]]>
  </style>
 </defs>
 <g id="Capa_x0020_1">
  <metadata id="CorelCorpID_0Corel-Layer"/>
  <g id="_2266802057264">
   <path class="fil0 str0" d="M521 1849c-133,56 -311,150 -374,430l-11 548 272 225 942 0 50 -55"/>
   <path class="fil0 str1" d="M649 1881c256,244 493,266 706,0"/>
   <path class="fil0 str1" d="M654 2169c256,-244 493,-267 705,0"/>
   <path class="fil0 str2" d="M558 1267c108,212 264,365 465,465 222,-74 359,-250 465,-465l0 -289c-113,-88 -121,-190 -16,-305l-11 -35c-409,328 -633,276 -694,-109l-32 16c-33,94 8,184 96,273 -84,47 -184,6 -305,-145 62,119 86,218 32,273l0 321z"/>
   <path class="fil1 str2" d="M462 1363c138,213 325,361 545,465 252,-62 431,-234 562,-481 90,-71 105,-151 48,-241l0 -368c49,-133 7,-267 -225,-401l-433 -33c-70,1 -119,-66 -224,-208 33,78 28,144 -33,192l-224 161 0 96c-73,-3 -127,16 -112,112 -15,98 -4,172 32,225l0 273c-22,109 3,175 64,208zm96 -96c108,212 264,365 465,465 222,-74 359,-250 465,-465l0 -289c-113,-88 -121,-190 -16,-305l-11 -35c-409,328 -633,276 -694,-109l-32 16c-33,94 8,184 96,273 -84,47 -184,6 -305,-145 62,119 86,218 32,273l0 321z"/>
   <path class="fil0 str0" d="M1488 1844c66,22 127,51 181,86l16 25"/>
  </g>
  <path class="fil1" d="M1976 1942c-354,0 -640,286 -640,640 0,189 82,359 212,476 114,102 263,164 428,164 353,0 640,-287 640,-640 0,-354 -287,-640 -640,-640zm0 198c-244,0 -442,198 -442,442 0,244 198,441 442,441 244,0 441,-197 441,-441 0,-244 -197,-442 -441,-442z"/>
  <path class="fil1 str3" d="M2134 2400l3 6c-24,-21 -52,-37 -82,-47l0 0 0 -71 -19 -18 -110 0 -19 18 -1 70 0 0c-34,11 -65,29 -91,53l-62 -28 -24 9 -47 100 9 25 51 23c-3,16 -5,32 -5,49 0,16 2,32 5,48l-53 26 -9 25 47 100 24 9 64 -30c26,23 57,41 92,52l0 57 18 18 110 0 19 -18 1 -58c35,-12 67,-32 93,-57l52 24 25 -9 47 -99 -9 -25 -46 -23c2,-13 3,-27 3,-40 0,-21 -3,-42 -8,-61l48 -23 9 -24 -46 -100 -25 -9 -64 28zm-155 78c61,0 110,50 110,111 0,60 -49,110 -110,110 -61,0 -111,-50 -111,-110 0,-61 50,-111 111,-111z"/>
 </g>
</svg>
