<?xml version="1.0" encoding="UTF-8"?>
<!DOCTYPE svg PUBLIC "-//W3C//DTD SVG 1.1//EN" "http://www.w3.org/Graphics/SVG/1.1/DTD/svg11.dtd">
<!-- Creator: CorelDRAW X7 -->
<svg xmlns="http://www.w3.org/2000/svg" xml:space="preserve" width="24.5416mm" height="24.5416mm" version="1.1" style="shape-rendering:geometricPrecision; text-rendering:geometricPrecision; image-rendering:optimizeQuality; fill-rule:evenodd; clip-rule:evenodd"
viewBox="0 0 2454 2454"
 xmlns:xlink="http://www.w3.org/1999/xlink">
 <defs>
  <font id="FontID0" horiz-adv-x="715" font-variant="normal" style="fill-rule:nonzero" font-weight="700">
	<font-face 
		font-family="Clarendon BT">
		<font-face-src>
			<font-face-name name="Clarendon BT Bold"/>
		</font-face-src>
	</font-face>
   <missing-glyph><path d="M0 0z"/></missing-glyph>
   <glyph unicode="0" horiz-adv-x="634" d="M28.0037 304.326c0,96.6677 26.6585,174.335 79.9908,233.338 53.5005,58.8352 123.341,88.3369 210.012,88.3369 86.4873,0 156.328,-29.3335 209.493,-88.1688 52.996,-58.6671 79.5017,-136.503 79.5017,-233.507 0,-96.6524 -26.6738,-174.488 -80.0061,-233.155 -53.5005,-58.8352 -123.326,-88.1688 -209.997,-88.1688 -86.5026,0 -156.328,29.3335 -209.493,87.8325 -53.0113,58.6671 -79.5017,136.503 -79.5017,233.491zm184.989 0c0,-82.6659 8.17793,-142.158 24.6714,-178.661 16.5087,-36.5026 42.8309,-54.6622 79.3335,-54.6622 36.8389,0 63.4974,18.3277 80.1743,54.8303 16.4934,36.6707 24.8242,96.1633 24.8242,178.493 0,82.513 -8.16264,142.174 -24.3351,178.844 -16.3253,36.5026 -42.8309,54.8303 -79.6545,54.8303 -36.8389,0 -63.5127,-18.3277 -80.1743,-55.1666 -16.4934,-36.6707 -24.8395,-96.3314 -24.8395,-178.508z"/>
   <glyph unicode="1" horiz-adv-x="634" d="M114.002 0l0 83.0021 45.3378 0c29.6545,0 49.1593,3.16417 58.4989,9.32437 9.49251,6.17548 14.1547,22.5008 14.1547,48.8383l0 19.0003 0 281.84 -117.991 0 0.504433 81.9933c45.1544,0.672577 81.4888,7.9945 108.667,21.9963 27.3311,14.0018 46.1633,35.0046 56.6646,63.0083l128.157 0 0 -455.167c0,-32.1767 3.83675,-52.1706 11.6784,-59.6759 7.82635,-7.49006 28.3247,-11.1587 61.1587,-11.1587l40.1712 0 0 -83.0021 -407.001 0z"/>
  </font>
  <style type="text/css">
   <![CDATA[
    @font-face { font-family:"Clarendon BT";font-variant:normal;font-weight:bold;src:url("#FontID0") format(svg)}
    .str0 {stroke:black;stroke-width:20}
    .str1 {stroke:white;stroke-width:20}
    .fil2 {fill:black}
    .fil0 {fill:black}
    .fil1 {fill:white}
    .fnt0 {font-weight:bold;font-size:654.2px;font-family:'Clarendon BT'}
   ]]>
  </style>
 </defs>
 <g id="Capa_x0020_3">
  <metadata id="CorelCorpID_0Corel-Layer"/>
  <g id="_2266847721472">
   <path class="fil0 str0" d="M1227 10c672,0 1217,545 1217,1217 0,672 -545,1217 -1217,1217 -672,0 -1217,-545 -1217,-1217 0,-672 545,-1217 1217,-1217zm-219 1797l-6 186 423 0 -1 -196 -11 0c79,-25 151,-67 212,-122l165 127c-145,142 -344,229 -563,229 -226,0 -431,-93 -577,-244l171 -118 0 -1c69,64 153,112 246,137l-59 2zm986 -339l-177 -130c6,-36 10,-73 10,-111 0,-45 -5,-89 -15,-131l188 -93c20,71 31,146 31,224 0,84 -13,165 -37,241zm-380 -699l138 -151c-95,-82 -209,-142 -334,-172l0 212 0 0c72,25 139,63 196,111zm-1168 267l191 85 0 0c-6,35 -10,70 -10,106 0,42 5,82 13,121l0 0 -185 105c-21,-71 -32,-147 -32,-226 0,-66 8,-130 23,-191zm347 -223l12 -22 -137 -141c92,-90 206,-158 334,-195l7 200 38 0c-98,31 -185,86 -254,158zm434 -49c256,0 463,207 463,463 0,256 -207,463 -463,463 -256,0 -463,-207 -463,-463 0,-256 207,-463 463,-463z"/>
   <path class="fil1 str1" d="M1009 96c123,-36 255,-38 395,0 51,14 96,43 96,95l0 0c0,53 -44,103 -96,96 -120,-18 -251,-18 -395,0 -52,6 -95,-43 -95,-96l0 0c0,-52 45,-81 95,-95z"/>
   <path class="fil1 str1" d="M2095 503c95,86 166,197 207,337 14,50 13,104 -32,131l0 0c-45,28 -110,17 -131,-31 -48,-112 -116,-224 -207,-337 -32,-41 -13,-104 32,-131l0 0c45,-28 92,-4 131,31z"/>
   <path class="fil1 str1" d="M349 516c-95,86 -166,197 -207,336 -15,51 -13,104 32,132l0 0c44,27 110,16 131,-32 48,-111 116,-224 206,-337 33,-41 14,-104 -31,-131l0 0c-45,-27 -92,-4 -131,32z"/>
   <path class="fil1 str1" d="M2300 1615c-33,124 -99,238 -205,338 -38,36 -86,59 -131,32l0 0c-45,-27 -65,-91 -32,-131 77,-94 146,-206 205,-338 21,-48 86,-60 131,-32l0 0c45,27 46,80 32,131z"/>
   <path class="fil1 str1" d="M144 1627c33,124 99,238 204,338 38,36 87,60 131,32l0 0c45,-27 66,-90 33,-131 -78,-93 -146,-206 -205,-338 -22,-48 -86,-59 -131,-32l0 0c-45,27 -46,81 -32,131z"/>
   <path class="fil1 str1" d="M1411 2345c-123,36 -255,38 -395,0 -51,-14 -96,-43 -96,-96l0 0c0,-52 44,-103 96,-95 120,18 252,18 395,0 52,-6 95,43 95,95l0 0c0,53 -45,81 -95,96z"/>
   <text x="806" y="1426"  class="fil2 fnt0">1</text>
   <text x="1176" y="1426"  class="fil2 fnt0">0</text>
  </g>
 </g>
</svg>
