<?xml version="1.0" encoding="UTF-8"?>
<!DOCTYPE svg PUBLIC "-//W3C//DTD SVG 1.1//EN" "http://www.w3.org/Graphics/SVG/1.1/DTD/svg11.dtd">
<!-- Creator: CorelDRAW X7 -->
<svg xmlns="http://www.w3.org/2000/svg" xml:space="preserve" width="18.3616mm" height="24.5416mm" version="1.1" style="shape-rendering:geometricPrecision; text-rendering:geometricPrecision; image-rendering:optimizeQuality; fill-rule:evenodd; clip-rule:evenodd"
viewBox="0 0 1836 2454"
 xmlns:xlink="http://www.w3.org/1999/xlink">
 <defs>
  <style type="text/css">
   <![CDATA[
    .str1 {stroke:black;stroke-width:52.91}
    .str0 {stroke:black;stroke-width:20}
    .fil1 {fill:none}
    .fil0 {fill:black}
   ]]>
  </style>
 </defs>
 <g id="Capa_x0020_1">
  <metadata id="CorelCorpID_0Corel-Layer"/>
  <g id="_2266797582432">
   <path class="fil0 str0" d="M175 351l137 0 1 252 -152 0 0 1614 1514 0 0 -1614 -177 0 0 -252 163 0c91,0 165,74 165,164l0 1764c0,91 -74,165 -165,165l-1486 0c-91,0 -165,-74 -165,-165l0 -1764c0,-90 74,-164 165,-164z"/>
   <line class="fil1 str1" x1="338" y1="1814" x2="1498" y2= "1814" />
   <line class="fil1 str1" x1="338" y1="2003" x2="1498" y2= "2003" />
   <polygon class="fil0 str0" points="527,1334 325,1511 325,1612 1498,1612 1498,1259 1221,1435 1019,1309 729,1511 "/>
   <polygon class="fil0 str0" points="527,1196 338,1360 338,1082 527,918 742,1107 1006,918 1208,1057 1498,855 1498,1145 1221,1322 1019,1196 754,1385 "/>
   <path class="fil0 str0" d="M540 250l138 0c0,-133 108,-240 240,-240 132,0 240,107 240,240l138 0c70,0 127,56 127,126l0 176c0,70 -57,126 -127,126l-756 0c-70,0 -126,-56 -126,-126l0 -176c0,-70 56,-126 126,-126zm378 -124c59,0 106,48 106,106 0,59 -47,106 -106,106 -58,0 -106,-47 -106,-106 0,-58 48,-106 106,-106z"/>
  </g>
 </g>
</svg>
