<?xml version="1.0" encoding="UTF-8"?>
<!DOCTYPE svg PUBLIC "-//W3C//DTD SVG 1.1//EN" "http://www.w3.org/Graphics/SVG/1.1/DTD/svg11.dtd">
<!-- Creator: CorelDRAW X7 -->
<svg xmlns="http://www.w3.org/2000/svg" xml:space="preserve" width="23.8605mm" height="24.5665mm" version="1.1" style="shape-rendering:geometricPrecision; text-rendering:geometricPrecision; image-rendering:optimizeQuality; fill-rule:evenodd; clip-rule:evenodd"
viewBox="0 0 2385 2455"
 xmlns:xlink="http://www.w3.org/1999/xlink">
 <defs>
  <style type="text/css">
   <![CDATA[
    .str0 {stroke:black;stroke-width:19.9879}
    .str1 {stroke:black;stroke-width:19.9879}
    .fil0 {fill:black}
   ]]>
  </style>
 </defs>
 <g id="Capa_x0020_1">
  <metadata id="CorelCorpID_0Corel-Layer"/>
  <path class="fil0 str0" d="M81 1817l-70 626 695 -139 1182 -1182 0 -69 -486 -487 -70 0 -1251 1251zm278 70l-209 0 0 278 104 26 35 113 278 -70 0 -139 -208 0 0 0 0 -208zm904 -1043l-765 765 0 69 139 0 765 -764 0 -70 -139 0z"/>
  <polygon class="fil0 str1" points="1541,358 2097,914 2375,636 2375,427 1958,10 1888,10 "/>
 </g>
</svg>
