<?xml version="1.0" encoding="UTF-8"?>
<!DOCTYPE svg PUBLIC "-//W3C//DTD SVG 1.1//EN" "http://www.w3.org/Graphics/SVG/1.1/DTD/svg11.dtd">
<!-- Creator: CorelDRAW X7 -->
<svg xmlns="http://www.w3.org/2000/svg" xml:space="preserve" width="24.7607mm" height="19.1687mm" version="1.1" style="shape-rendering:geometricPrecision; text-rendering:geometricPrecision; image-rendering:optimizeQuality; fill-rule:evenodd; clip-rule:evenodd"
viewBox="0 0 2498 1934"
 xmlns:xlink="http://www.w3.org/1999/xlink">
 <defs>
  <style type="text/css">
   <![CDATA[
    .str0 {stroke:black;stroke-width:160.157}
    .str2 {stroke:white;stroke-width:53.3824}
    .str1 {stroke:black;stroke-width:20.1786}
    .fil1 {fill:none}
    .fil0 {fill:black}
    .fil2 {fill:white}
   ]]>
  </style>
 </defs>
 <g id="Capa_x0020_1">
  <metadata id="CorelCorpID_0Corel-Layer"/>
  <g id="_2266802044112">
   <path class="fil0" d="M1989 917c-281,0 -508,227 -508,508 0,151 65,286 169,379 90,81 209,130 339,130 281,0 509,-228 509,-509 0,-281 -228,-508 -509,-508zm0 157c-193,0 -350,157 -350,351 0,194 157,351 350,351 194,0 351,-157 351,-351 0,-194 -157,-351 -351,-351z"/>
   <line class="fil1 str0" x1="1989" y1="1197" x2="1989" y2= "1653" />
   <line class="fil1 str0" x1="1761" y1="1425" x2="2218" y2= "1425" />
  </g>
  <path class="fil0" d="M664 248l1155 0c234,0 426,192 426,426l0 0c0,101 -76,155 -136,228 -50,-17 -53,-25 -160,-25 -106,0 -297,71 -390,182l-895 40c-234,11 -425,-191 -425,-425l0 0c0,-234 191,-426 425,-426zm1294 828c-29,10 -60,17 -92,21 29,-11 60,-18 92,-21z"/>
  <path class="fil0 str1" d="M674 10l1128 0c365,0 664,299 664,664l0 0c0,143 -6,236 -84,345 -40,-39 -86,-70 -136,-94 61,-81 58,-142 58,-251l0 0c0,-266 -218,-484 -484,-484l-1156 0c-266,0 -484,218 -484,484l0 0c0,266 218,484 484,484l839 0c-33,54 -57,115 -68,180l-761 0c-365,0 -664,-299 -664,-664l0 0c0,-365 299,-664 664,-664z"/>
  <polygon class="fil2 str1" points="563,453 858,453 858,895 563,895 "/>
  <polygon class="fil2 str1" points="917,453 1212,453 1212,895 917,895 "/>
  <polygon class="fil2 str1" points="1271,453 1566,453 1566,895 1271,895 "/>
  <polygon class="fil2 str1" points="1625,453 1920,453 1920,865 1810,895 1625,895 "/>
  <polygon class="fil0" points="718,762 637,674 711,578 792,666 "/>
  <path class="fil0" d="M1020 644c-88,0 -59,140 30,89l-30 44 74 0 15 0 -30 -44c74,44 118,-74 30,-89 37,-110 -140,-88 -89,0z"/>
  <path class="fil0" d="M1338 666l81 96 81 -96c29,-44 -22,-110 -81,-51 -59,-59 -111,7 -81,51z"/>
  <polygon class="fil2 str2" points="548,1175 548,1293 "/>
  <polygon class="fil2 str2" points="1249,1197 1249,1315 "/>
  <path class="fil0" d="M1854 659l-81 -96 -81 96c-26,38 9,93 57,69l-23 53 88 0 -19 -53c49,25 84,-30 59,-69z"/>
  <polygon class="fil2 str2" points="537,47 537,165 "/>
  <polygon class="fil2 str2" points="1238,69 1238,187 "/>
  <polygon class="fil2 str2" points="1946,54 1946,172 "/>
 </g>
</svg>
