<?xml version="1.0" encoding="UTF-8"?>
<!DOCTYPE svg PUBLIC "-//W3C//DTD SVG 1.1//EN" "http://www.w3.org/Graphics/SVG/1.1/DTD/svg11.dtd">
<!-- Creator: CorelDRAW X7 -->
<svg xmlns="http://www.w3.org/2000/svg" xml:space="preserve" width="21.1237mm" height="24.5418mm" version="1.1" style="shape-rendering:geometricPrecision; text-rendering:geometricPrecision; image-rendering:optimizeQuality; fill-rule:evenodd; clip-rule:evenodd"
viewBox="0 0 1897 2204"
 xmlns:xlink="http://www.w3.org/1999/xlink">
 <defs>
  <font id="FontID0" horiz-adv-x="667" font-variant="normal" style="fill-rule:nonzero" font-weight="400">
	<font-face 
		font-family="Arial">
		<font-face-src>
			<font-face-name name="Arial"/>
		</font-face-src>
	</font-face>
   <missing-glyph><path d="M0 0z"/></missing-glyph>
   <glyph unicode="R" horiz-adv-x="722" d="M79.0079 0l0 716 317.323 0c63.8425,0 112.331,-6.50394 145.496,-19.3386 33.1811,-12.8346 59.6693,-35.4961 79.5118,-68 19.8268,-32.4882 29.6693,-68.4882 29.6693,-107.827 0,-50.8346 -16.5039,-93.6693 -49.3386,-128.504 -32.8346,-34.8346 -83.4961,-56.8346 -152.173,-66.3307 25.1654,-12 44.1732,-24 57.1654,-35.6693 27.6693,-25.3228 53.8425,-57.1654 78.3465,-95.3228l123.827 -195.008 -118.331 0 -94.6772 149.008c-27.4961,43.1654 -50.3307,76 -68.1575,98.8189 -18,22.8346 -34,38.6772 -48.1732,47.8425 -14,8.99213 -28.4882,15.3386 -43.1654,18.9921 -10.6614,2.17323 -28.1575,3.33858 -52.6614,3.33858l-109.669 0 0 -318 -94.9921 0zm94.9921 400l203.339 0c43.3228,0 76.9921,4.50394 101.323,13.4961 24.3465,8.83465 42.8346,23.1654 55.3386,43.0079 12.6614,19.6693 19.0079,40.9921 19.0079,64.1575 0,33.8425 -12.1732,61.8425 -36.6772,83.6693 -24.5039,21.8425 -63.1654,32.6772 -116,32.6772l-226.331 0 0 -237.008z"/>
   <glyph unicode="L" horiz-adv-x="556" d="M73.0079 0l0 716 94.9921 0 0 -632 352 0 0 -84 -446.992 0z"/>
   <glyph unicode="E" horiz-adv-x="667" d="M79.0079 0l0 716 516.992 0 0 -84 -422 0 0 -220 395.008 0 0 -84 -395.008 0 0 -244 439.008 0 0 -84 -534 0z"/>
  </font>
  <style type="text/css">
   <![CDATA[
    @font-face { font-family:"Arial";font-variant:normal;font-weight:normal;src:url("#FontID0") format(svg)}
    .str1 {stroke:white;stroke-width:47.5064}
    .str0 {stroke:black;stroke-width:17.9574}
    .str2 {stroke:white;stroke-width:17.9574}
    .fil1 {fill:none}
    .fil0 {fill:black}
    .fil2 {fill:white}
    .fnt0 {font-weight:normal;font-size:570.149px;font-family:'Arial'}
   ]]>
  </style>
 </defs>
 <g id="Capa_x0020_1">
  <metadata id="CorelCorpID_0Corel-Layer"/>
  <path class="fil0 str0" d="M426 9l911 0c100,6 169,37 208,93l251 265c58,61 91,133 92,219l0 1408c0,110 -91,201 -201,201l-1261 0c-111,0 -201,-91 -201,-201l0 -580 986 0c32,0 58,-27 58,-59l0 -507c0,-32 -26,-58 -58,-58l-986 0 0 -580c0,-111 90,-201 201,-201z"/>
  <path class="fil1 str1" d="M472 126l864 0 4 308c6,120 23,131 144,145l316 1 0 1340c0,88 -72,160 -160,160l-1168 0c-88,0 -160,-72 -160,-160l0 -1636c0,-88 72,-158 160,-158z"/>
  <rect class="fil0 str0" x="9" y="852" width="1202" height="499" rx="53" ry="47"/>
  <text x="43" y="1306"  class="fil2 fnt0">REL</text>
  <line class="fil1 str2" x1="1056" y1="232" x2="1056" y2= "743" />
  <line class="fil1 str2" x1="1056" y1="1474" x2="1056" y2= "1961" />
  <line class="fil1 str2" x1="474" y1="1518" x2="949" y2= "1518" />
  <line class="fil1 str2" x1="474" y1="1589" x2="949" y2= "1589" />
  <line class="fil1 str2" x1="474" y1="1660" x2="949" y2= "1660" />
  <line class="fil1 str2" x1="474" y1="1731" x2="949" y2= "1731" />
  <line class="fil1 str2" x1="1163" y1="1518" x2="1638" y2= "1518" />
  <line class="fil1 str2" x1="1163" y1="1589" x2="1638" y2= "1589" />
  <line class="fil1 str2" x1="1163" y1="1660" x2="1638" y2= "1660" />
  <line class="fil1 str2" x1="1163" y1="1731" x2="1638" y2= "1731" />
  <line class="fil1 str2" x1="474" y1="591" x2="949" y2= "591" />
  <line class="fil1 str2" x1="474" y1="662" x2="949" y2= "662" />
  <line class="fil1 str2" x1="474" y1="734" x2="949" y2= "734" />
  <line class="fil1 str2" x1="474" y1="306" x2="949" y2= "306" />
  <line class="fil1 str2" x1="474" y1="377" x2="949" y2= "377" />
  <line class="fil1 str2" x1="474" y1="448" x2="949" y2= "448" />
  <line class="fil1 str2" x1="474" y1="520" x2="949" y2= "520" />
 </g>
</svg>
