<?xml version="1.0" encoding="utf-8"?>
<!-- Generator: Adobe Illustrator 16.0.0, SVG Export Plug-In . SVG Version: 6.00 Build 0)  -->
<!DOCTYPE svg PUBLIC "-//W3C//DTD SVG 1.1//EN" "http://www.w3.org/Graphics/SVG/1.1/DTD/svg11.dtd">
<svg class="iconoBingos" version="1.1" id="bingo" xmlns="http://www.w3.org/2000/svg" xmlns:xlink="http://www.w3.org/1999/xlink" x="0px" y="0px"
	 width="295px" height="383px" viewBox="0 0 295 383" enable-background="new 0 0 295 383" xml:space="preserve">
<g>

		<ellipse fill-rule="evenodd" clip-rule="evenodd" fill="none" stroke="#868b90" stroke-width="13" stroke-miterlimit="10" cx="139.37" cy="172.985" rx="104.531" ry="102.576"/>
	<polyline fill-rule="evenodd" clip-rule="evenodd" fill="none" stroke="#868b90" stroke-width="13" stroke-miterlimit="10" points="
		255.039,169.258 200.369,335.801 79.891,335.801 18.135,172.985 254.532,172.985 258.076,172.985 268.199,172.985 268.199,223.422
		280.349,223.422 	"/>
	<ellipse fill-rule="evenodd" clip-rule="evenodd" cx="279.083" cy="220.637" rx="10.884" ry="17.465"/>
	<ellipse fill-rule="evenodd" clip-rule="evenodd" cx="139.868" cy="312.008" rx="12.392" ry="11.137"/>
	<rect x="121.733" y="274.1" fill-rule="evenodd" clip-rule="evenodd" width="35.102" height="20.697"/>

		<line fill-rule="evenodd" clip-rule="evenodd" stroke="#868b90" stroke-width="13" stroke-miterlimit="10" x1="139.284" y1="284.449" x2="184.17" y2="284.449"/>

		<ellipse fill-rule="evenodd" clip-rule="evenodd" fill="none" stroke="#868b90" stroke-width="13" stroke-miterlimit="10" cx="139.598" cy="174.48" rx="26.297" ry="97.747"/>

		<ellipse fill-rule="evenodd" clip-rule="evenodd" fill="none" stroke="#868b90" stroke-width="13" stroke-miterlimit="10" cx="139.624" cy="174.527" rx="64.289" ry="95.465"/>

		<ellipse fill-rule="evenodd" clip-rule="evenodd" fill="none" stroke="#868b90" stroke-width="13" stroke-miterlimit="10" cx="138.696" cy="173.01" rx="97.746" ry="26.297"/>

		<ellipse fill-rule="evenodd" clip-rule="evenodd" fill="none" stroke="#868b90" stroke-width="13" stroke-miterlimit="10" cx="138.743" cy="172.984" rx="95.466" ry="64.288"/>
</g>
</svg>
