<?xml version="1.0" encoding="UTF-8"?>
<!DOCTYPE svg PUBLIC "-//W3C//DTD SVG 1.1//EN" "http://www.w3.org/Graphics/SVG/1.1/DTD/svg11.dtd">
<!-- Creator: CorelDRAW X7 -->
<svg xmlns="http://www.w3.org/2000/svg" xml:space="preserve" width="22.2596mm" height="22.2597mm" version="1.1" style="shape-rendering:geometricPrecision; text-rendering:geometricPrecision; image-rendering:optimizeQuality; fill-rule:evenodd; clip-rule:evenodd"
viewBox="0 0 2228 2228"
 xmlns:xlink="http://www.w3.org/1999/xlink">
 <defs>
  <font id="FontID0" horiz-adv-x="715" font-variant="normal" style="fill-rule:nonzero" font-style="normal" font-weight="700">
	<font-face
		font-family="Clarendon BT">
		<font-face-src>
			<font-face-name name="Clarendon BT Bold"/>
		</font-face-src>
	</font-face>
   <missing-glyph><path d="M0 0z"/></missing-glyph>
   <glyph unicode="0" horiz-adv-x="634" d="M27.9934 304.33c0,96.6651 26.6681,174.343 80.0043,233.332 53.4985,58.8267 123.333,88.3347 209.991,88.3347 86.5226,0 156.357,-29.3187 209.504,-88.1725 53.0117,-58.6644 79.5175,-136.505 79.5175,-233.495 0,-96.6651 -26.6681,-174.506 -80.0043,-233.17 -53.4985,-58.8267 -123.333,-88.1725 -210.018,-88.1725 -86.4956,0 -156.33,29.3457 -209.477,87.8479 -53.0117,58.6644 -79.5175,136.505 -79.5175,233.495zm185 0c0,-82.6549 8.16812,-142.158 24.6666,-178.671 16.4985,-36.4861 42.8421,-54.6615 79.3282,-54.6615 36.8377,0 63.5058,18.3377 80.1666,54.8238 16.4985,36.6754 24.856,96.1783 24.856,178.509 0,82.4926 -8.16812,142.158 -24.3421,178.833 -16.3362,36.5131 -42.8421,54.8238 -79.6798,54.8238 -36.8106,0 -63.4788,-18.3107 -80.1666,-55.1484 -16.4985,-36.6754 -24.8289,-96.3406 -24.8289,-178.509z"/>
   <glyph unicode="5" horiz-adv-x="634" d="M91.0124 309.009l17.9861 313.986c38.8392,-6.16666 77.3267,-10.6564 115.841,-13.6586 38.3253,-2.83991 77.0021,-4.32748 116.166,-4.32748 40.3267,0 81.1673,3.16447 122.495,9.49341 41.3275,6.32894 62.5051,9.49341 63.5058,9.49341 6.81578,0 11.9817,-1.48757 15.6601,-4.65204 3.48903,-3.00219 5.32821,-7.16739 5.32821,-12.3333 0,-31.6718 -24.5044,-59.6652 -73.4861,-84.1695 -49.0087,-24.5044 -109.512,-36.8377 -181.511,-36.8377 -14.4971,0 -30.3194,0.83845 -47.0073,2.65058 -16.8231,1.83918 -34.4846,4.35453 -52.9846,7.519l-4.00292 -88.0102c19.8253,11.1703 40.8406,19.3384 62.9919,24.8289 22.1783,5.32821 46.1688,8.00584 72.3501,8.00584 77.9758,0 140.481,-20.5014 187.326,-61.5043 46.8179,-41.0029 70.3216,-96.1512 70.3216,-165.499 0,-68.9963 -26.3165,-124.983 -78.8143,-167.825 -52.5248,-42.8421 -121.683,-64.182 -207.178,-64.182 -74.1622,0 -133.503,15.6871 -178.157,47.1696 -44.519,31.3472 -66.8326,72.6747 -66.8326,123.847 0,31.1579 9.65569,56.3384 28.8319,75.4875 19.1491,19.0139 44.4919,28.5073 76.0014,28.5073 25.6674,0 46.8179,-7.84356 63.4788,-23.6659 16.4985,-15.8224 24.856,-35.9992 24.856,-60.3413 0,-21.1506 -7.00511,-38.3253 -21.0153,-51.497 -13.9832,-13.3341 -33.6732,-20.9883 -58.989,-23.3143 16.3362,-11.3596 32.1586,-19.69 47.4941,-25.1805 15.4978,-5.32821 31.1579,-8.00584 47.1696,-8.00584 41.652,0 73.9999,13.8479 97.3413,41.5168 23.152,27.6688 34.8092,66.1564 34.8092,115.652 0,38.6769 -10.1425,69.5102 -30.644,92.4999 -20.5014,22.8275 -48.008,34.3494 -82.5197,34.3494 -19.5007,0 -36.8377,-3.3538 -51.6593,-10.0073 -15.011,-6.68055 -27.9934,-16.6608 -39.0014,-29.9949l-96.1512 0z"/>
   <glyph unicode="1" horiz-adv-x="634" d="M114.002 0l0 83.0065 45.3304 0c29.6703,0 49.171,3.16447 58.5022,9.33113 9.49341,6.16666 14.1725,22.5029 14.1725,48.8194l0 19.0139 0 281.827 -118.005 0 0.486842 82.0058c45.1681,0.649122 81.5189,8.00584 108.674,21.989 27.3443,14.0102 46.1688,34.9985 56.663,63.019l128.175 0 0 -455.17c0,-32.1856 3.84064,-52.1732 11.6572,-59.6652 7.84356,-7.519 28.345,-11.1703 61.1798,-11.1703l40.1644 0 0 -83.0065 -407 0z"/>
  </font>
  <style type="text/css">
   <![CDATA[
    @font-face { font-family:"Clarendon BT";font-variant:normal;font-style:normal;font-weight:bold;src:url("#FontID0") format(svg)}
    .str0 {stroke:black;stroke-width:20.0138}
    .str1 {stroke:none;stroke-width:20.0138}
    .fil2 {fill:black}
    .fil0 {fill:black}
    .fil1 {fill:none}
    .fnt0 {font-weight:bold;font-size:369.986px;font-family:'Clarendon BT'}
   ]]>
  </style>
 </defs>
 <g id="Capa_x0020_1">
  <metadata id="CorelCorpID_0Corel-Layer"/>
  <path class="fil0 str0" d="M1529 841c380,0 688,308 688,688 0,380 -308,689 -688,689 -380,0 -688,-309 -688,-689 0,-380 308,-688 688,-688zm-124 1016l-3 105 239 0 0 -110 -7 0c45,-15 86,-39 120,-69l93 71c-82,80 -194,130 -318,130 -128,0 -244,-53 -326,-138l97 -67 -1 0c40,36 87,63 140,77l-34 1zm558 -191l-101 -74c4,-21 6,-41 6,-63 0,-25 -2,-50 -8,-74l106 -52c12,40 18,82 18,126 0,48 -7,94 -21,137zm-215 -396l78 -85c-54,-47 -118,-81 -189,-98l0 120 0 0c41,14 79,36 111,63zm-661 151l108 48 0 0c-3,20 -5,40 -5,60 0,24 2,46 7,69l0 -1 -104 60c-12,-40 -19,-83 -19,-128 0,-37 5,-73 13,-108zm197 -126l6 -13 -77 -80c52,-50 117,-89 189,-110l4 113 21 1c-55,17 -104,48 -143,89zm245 -28c145,0 262,117 262,262 0,145 -117,262 -262,262 -145,0 -262,-117 -262,-262 0,-145 117,-262 262,-262z"/>
  <path class="fil1 str1" d="M1406 889c69,-20 144,-21 223,0 29,8 54,25 54,54l0 0c0,30 -24,58 -54,54 -68,-10 -142,-10 -223,0 -30,4 -54,-24 -54,-54l0 0c0,-29 25,-45 54,-54z"/>
  <path class="fil1 str1" d="M2020 1120c54,48 94,111 117,190 8,29 7,59 -18,74l0 0c-25,16 -62,10 -74,-17 -27,-64 -66,-127 -117,-191 -18,-23 -7,-59 18,-74l0 0c25,-16 52,-2 74,18z"/>
  <path class="fil1 str1" d="M1032 1127c-53,48 -94,111 -117,190 -8,29 -7,59 18,74l0 0c26,16 63,10 74,-17 28,-63 66,-127 117,-191 19,-23 8,-59 -18,-74l0 0c-25,-16 -52,-2 -74,18z"/>
  <path class="fil1 str1" d="M2136 1748c-19,70 -56,135 -116,192 -21,20 -49,33 -74,18l0 0c-25,-16 -37,-51 -18,-74 44,-53 82,-117 116,-192 12,-27 48,-33 74,-18l0 0c25,16 26,46 18,74z"/>
  <path class="fil1 str1" d="M916 1755c19,71 57,135 116,192 22,20 49,33 74,18l0 0c26,-16 37,-51 18,-74 -43,-53 -82,-117 -115,-191 -13,-28 -49,-34 -75,-19l0 0c-25,16 -25,46 -18,74z"/>
  <path class="fil1 str1" d="M1633 2161c-69,21 -144,22 -223,0 -29,-7 -54,-24 -54,-54l0 0c0,-29 24,-58 54,-54 68,10 142,10 223,0 30,-3 54,25 54,54l0 0c0,30 -25,46 -54,54z"/>
  <text x="1412" y="1641"  class="fil2 fnt0">5</text>
  <g id="_2266799904224">
   <path class="fil0 str0" d="M698 10c381,0 689,308 689,688 0,381 -308,689 -689,689 -380,0 -688,-308 -688,-689 0,-380 308,-688 688,-688zm-123 1016l-4 105 239 0 0 -110 -7 0c45,-15 86,-38 121,-69l93 71c-82,81 -195,130 -319,130 -128,0 -243,-53 -326,-138l97 -67 0 0c39,36 86,63 139,77l-33 1zm557 -191l-100 -74c4,-20 6,-41 6,-63 0,-25 -3,-50 -8,-74l105 -52c12,40 18,82 18,126 0,48 -7,94 -21,137zm-215 -396l78 -85c-53,-46 -118,-80 -189,-98l0 121 0 0c41,13 79,35 111,62zm-660 151l107 49 0 0c-3,19 -5,39 -5,59 0,24 3,47 7,69l0 0 -104 59c-12,-40 -18,-83 -18,-128 0,-37 4,-73 13,-108zm196 -126l6 -12 -77 -80c52,-51 117,-89 189,-110l4 113 21 0c-55,17 -104,48 -143,89zm245 -28c145,0 263,118 263,262 0,145 -118,263 -263,263 -144,0 -262,-118 -262,-263 0,-144 118,-262 262,-262z"/>
   <path class="fil1 str1" d="M575 59c70,-21 144,-22 224,0 28,7 54,24 54,54l0 0c0,29 -25,58 -54,53 -68,-9 -143,-10 -224,0 -29,4 -54,-24 -54,-53l0 0c0,-30 26,-46 54,-54z"/>
   <path class="fil1 str1" d="M1189 289c54,49 94,112 117,190 9,29 8,59 -18,75l0 0c-25,15 -62,9 -74,-18 -27,-63 -66,-127 -117,-191 -18,-23 -7,-58 18,-74l0 0c25,-15 52,-2 74,18z"/>
   <path class="fil1 str1" d="M202 296c-54,49 -94,112 -117,191 -9,28 -8,58 18,74l0 0c25,15 62,9 74,-18 27,-63 66,-127 117,-191 18,-23 7,-58 -18,-74l0 0c-26,-15 -52,-2 -74,18z"/>
   <path class="fil1 str1" d="M1305 918c-18,70 -56,134 -116,191 -21,20 -48,33 -74,18l0 0c-25,-15 -37,-51 -18,-74 44,-53 83,-117 116,-191 12,-27 49,-34 74,-18l0 0c26,15 26,45 18,74z"/>
   <path class="fil1 str1" d="M86 925c18,70 56,134 115,191 22,20 49,33 75,18l0 0c25,-15 37,-51 18,-74 -44,-53 -83,-117 -116,-191 -12,-27 -49,-34 -74,-18l0 0c-26,15 -26,45 -18,74z"/>
   <path class="fil1 str1" d="M802 1331c-69,20 -144,21 -223,0 -29,-8 -54,-25 -54,-54l0 0c0,-30 25,-59 54,-54 68,10 142,10 223,0 30,-4 54,24 54,54l0 0c0,29 -25,45 -54,54z"/>
   <text x="460" y="811"  class="fil2 fnt0">1</text>
   <text x="670" y="811"  class="fil2 fnt0">0</text>
  </g>
 </g>
</svg>
