<?xml version="1.0" encoding="UTF-8"?>
<!DOCTYPE svg PUBLIC "-//W3C//DTD SVG 1.1//EN" "http://www.w3.org/Graphics/SVG/1.1/DTD/svg11.dtd">
<!-- Creator: CorelDRAW X7 -->
<svg xmlns="http://www.w3.org/2000/svg" xml:space="preserve" width="24.5418mm" height="24.5416mm" version="1.1" style="shape-rendering:geometricPrecision; text-rendering:geometricPrecision; image-rendering:optimizeQuality; fill-rule:evenodd; clip-rule:evenodd"
viewBox="0 0 2454 2454"
 xmlns:xlink="http://www.w3.org/1999/xlink">
 <defs>
  <style type="text/css">
   <![CDATA[
    .str1 {stroke:black;stroke-width:211.66}
    .str0 {stroke:black;stroke-width:20}
    .fil1 {fill:none}
    .fil0 {fill:black}
   ]]>
  </style>
 </defs>
 <g id="Capa_x0020_1">
  <metadata id="CorelCorpID_0Corel-Layer"/>
  <path class="fil0 str0" d="M1018 10c-557,0 -1008,451 -1008,1008 0,557 451,1009 1008,1009 557,0 1009,-452 1009,-1009 0,-557 -452,-1008 -1009,-1008zm0 313c-384,0 -695,311 -695,695 0,385 311,696 695,696 385,0 696,-311 696,-696 0,-384 -311,-695 -696,-695z"/>
  <line class="fil1 str1" x1="1018" y1="566" x2="1018" y2= "1470" />
  <line class="fil1 str1" x1="566" y1="1018" x2="1471" y2= "1018" />
  <polygon class="fil0 str0" points="1679,1679 1679,1957 2166,2444 2305,2444 2444,2305 2444,2166 1957,1679 "/>
 </g>
</svg>
