<?xml version="1.0" encoding="UTF-8"?>
<!DOCTYPE svg PUBLIC "-//W3C//DTD SVG 1.1//EN" "http://www.w3.org/Graphics/SVG/1.1/DTD/svg11.dtd">
<!-- Creator: CorelDRAW X7 -->
<svg xmlns="http://www.w3.org/2000/svg" xml:space="preserve" width="21.4206mm" height="24.5418mm" version="1.1" style="shape-rendering:geometricPrecision; text-rendering:geometricPrecision; image-rendering:optimizeQuality; fill-rule:evenodd; clip-rule:evenodd"
viewBox="0 0 1902 2180"
 xmlns:xlink="http://www.w3.org/1999/xlink">
 <defs>
  <font id="FontID0" horiz-adv-x="667" font-variant="normal" style="fill-rule:nonzero" font-weight="400">
	<font-face 
		font-family="Arial">
		<font-face-src>
			<font-face-name name="Arial"/>
		</font-face-src>
	</font-face>
   <missing-glyph><path d="M0 0z"/></missing-glyph>
   <glyph unicode="R" horiz-adv-x="722" d="M78.9916 0l0 716.008 317.346 0c63.8358,0 112.327,-6.50075 145.492,-19.3322 33.1651,-12.8503 59.6784,-35.5084 79.5019,-68.0122 19.8424,-32.5037 29.6691,-68.5035 29.6691,-107.829 0,-50.8343 -16.4975,-93.675 -49.3414,-128.503 -32.825,-34.8281 -83.4892,-56.8248 -152.163,-66.3303 25.1715,-11.9999 44.1635,-23.9998 57.165,-35.6596 27.666,-25.3416 53.839,-57.1839 78.3302,-95.338l123.835 -195.003 -118.336 0 -94.6577 149.007c-27.4959,43.1619 -50.3241,75.9869 -68.1634,98.834 -18.0093,22.8282 -33.9966,38.6643 -48.1698,47.8296 -14.0031,8.99522 -28.4975,15.3259 -43.1619,18.992 -10.6771,2.17321 -28.1762,3.34486 -52.6674,3.34486l-109.662 0 0 -318.007 -95.0167 0zm95.0167 400.004l203.318 0c43.332,0 77.0074,4.49761 101.347,13.4928 24.3211,8.84404 42.8218,23.1684 55.3319,43.0108 12.6613,19.6534 18.992,40.9887 18.992,64.1571 0,33.8266 -12.17,61.8327 -36.6612,83.6782 -24.5101,21.8266 -63.1744,32.6549 -116.012,32.6549l-226.317 0 0 -236.994z"/>
   <glyph unicode="L" horiz-adv-x="556" d="M73.0011 0l0 716.008 94.9978 0 0 -632.009 352.004 0 0 -83.9995 -447.002 0z"/>
   <glyph unicode="E" horiz-adv-x="667" d="M78.9916 0l0 716.008 517.017 0 0 -83.9995 -422 0 0 -220.005 394.996 0 0 -83.9995 -394.996 0 0 -244.005 438.989 0 0 -83.9995 -534.006 0z"/>
  </font>
  <style type="text/css">
   <![CDATA[
    @font-face { font-family:"Arial";font-variant:normal;font-weight:normal;src:url("#FontID0") format(svg)}
    .str2 {stroke:black;stroke-width:70.4867}
    .str1 {stroke:black;stroke-width:17.7615}
    .str0 {stroke:black;stroke-width:17.7615}
    .fil0 {fill:none}
    .fil1 {fill:black}
    .fil2 {fill:white}
    .fnt0 {font-weight:normal;font-size:469.944px;font-family:'Arial'}
   ]]>
  </style>
 </defs>
 <g id="Capa_x0020_1">
  <metadata id="CorelCorpID_0Corel-Layer"/>
  <line class="fil0 str0" x1="1071" y1="230" x2="1071" y2= "735" />
  <line class="fil0 str0" x1="1071" y1="1457" x2="1071" y2= "1939" />
  <line class="fil0 str0" x1="495" y1="1501" x2="965" y2= "1501" />
  <line class="fil0 str0" x1="495" y1="1571" x2="965" y2= "1571" />
  <line class="fil0 str0" x1="495" y1="1642" x2="965" y2= "1642" />
  <line class="fil0 str0" x1="495" y1="1712" x2="965" y2= "1712" />
  <line class="fil0 str0" x1="1177" y1="1501" x2="1647" y2= "1501" />
  <line class="fil0 str0" x1="1177" y1="1571" x2="1647" y2= "1571" />
  <line class="fil0 str0" x1="1177" y1="1642" x2="1647" y2= "1642" />
  <line class="fil0 str0" x1="1177" y1="1712" x2="1647" y2= "1712" />
  <line class="fil0 str0" x1="495" y1="585" x2="965" y2= "585" />
  <line class="fil0 str0" x1="495" y1="655" x2="965" y2= "655" />
  <line class="fil0 str0" x1="495" y1="726" x2="965" y2= "726" />
  <line class="fil0 str0" x1="495" y1="303" x2="965" y2= "303" />
  <line class="fil0 str0" x1="495" y1="373" x2="965" y2= "373" />
  <line class="fil0 str0" x1="495" y1="444" x2="965" y2= "444" />
  <line class="fil0 str0" x1="495" y1="514" x2="965" y2= "514" />
  <path class="fil1 str1" d="M447 9l902 0c99,6 167,36 205,92l249 262c57,60 90,131 90,216l0 1393c0,109 -89,199 -198,199l-1248 0c-109,0 -198,-90 -198,-199l0 -550 86 0 0 477c0,87 71,158 158,158l1156 0c87,0 158,-71 158,-158l0 -1326 -312 0c-121,-14 -137,-25 -144,-144l-3 -305 -855 0c-87,0 -158,70 -158,157l0 477 -86 0 0 -550c0,-110 89,-199 198,-199z"/>
  <rect class="fil2 str2" x="35" y="843" width="1189" height="493" rx="53" ry="46"/>
  <text x="162" y="1258"  class="fil1 fnt0">REL</text>
 </g>
</svg>
